…
**1. Tokenize the abstracts and count the number of each token. Do you
see anything interesting? Does removing stop words change what tokens
appear as the most frequent? What are the 5 most common tokens for each
search term after removing stopwords?**

``` r
pubmed %>%
  unnest_tokens(token, abstract) %>%
  count(token, sort = TRUE) # %>%
```

    ## # A tibble: 20,567 × 2
    ##    token     n
    ##    <chr> <int>
    ##  1 the   28126
    ##  2 of    24760
    ##  3 and   19993
    ##  4 in    14653
    ##  5 to    10920
    ##  6 a      8245
    ##  7 with   8038
    ##  8 covid  7275
    ##  9 19     7080
    ## 10 is     5649
    ## # ℹ 20,557 more rows
…
