…
## County

``` r
county_level <- combined %>%
  group_by(COUNTY, Year) %>%
  summarize(PM2.5_avg = mean(PM2.5))
```

    ## `summarise()` has grouped output by 'COUNTY'. You can override using the `.groups` argument.

``` r
county_level
```

    ## # A tibble: 98 x 3
    ## # Groups:   COUNTY [51]
    ##    COUNTY       Year  PM2.5_avg
    ##    <fct>        <fct>     <dbl>
    ##  1 Alameda      2004      11.1 
    ##  2 Alameda      2019       7.34
    ##  3 Butte        2004      10.1 
    ##  4 Butte        2019       7.01
    ##  5 Calaveras    2004       7.61
    ##  6 Calaveras    2019       5.46
    ##  7 Colusa       2004      10.0 
    ##  8 Colusa       2019       6.63
    ##  9 Contra Costa 2004      12.8 
    ## 10 Contra Costa 2019       7.20
    ## # ... with 88 more rows
…
## Site in Los Angeles

``` r
sites_la <- combined[COUNTY=="Los Angeles"] %>%
  group_by(`Site Name`,Year)

sites_la
```

    ## # A tibble: 7,155 x 22
    ## # Groups:   Site Name, Year [24]
    ##    Year  Date       Source `Site ID`   POC PM2.5 UNITS    DAILY_AQI_VALUE
    ##    <fct> <date>     <chr>      <int> <int> <dbl> <chr>              <int>
    ##  1 2004  2004-01-01 AQS     60370002     1  18   ug/m3 LC              63
    ##  2 2004  2004-01-02 AQS     60370002     1  20.4 ug/m3 LC              68
    ##  3 2004  2004-01-03 AQS     60370002     1   8   ug/m3 LC              33
    ##  4 2004  2004-01-07 AQS     60370002     1  23.6 ug/m3 LC              75
    ##  5 2004  2004-01-08 AQS     60370002     1  28.3 ug/m3 LC              85
    ##  6 2004  2004-01-09 AQS     60370002     1  21.9 ug/m3 LC              72
    ##  7 2004  2004-01-10 AQS     60370002     1   9.1 ug/m3 LC              38
    ##  8 2004  2004-01-11 AQS     60370002     1  12.5 ug/m3 LC              52
    ##  9 2004  2004-01-12 AQS     60370002     1  42.2 ug/m3 LC             117
    ## 10 2004  2004-01-13 AQS     60370002     1   9.1 ug/m3 LC              38
    ## # ... with 7,145 more rows, and 14 more variables: Site Name <fct>,
    ## #   DAILY_OBS_COUNT <int>, PERCENT_COMPLETE <dbl>, AQS_PARAMETER_CODE <int>,
    ## #   AQS_PARAMETER_DESC <chr>, CBSA_CODE <int>, CBSA_NAME <chr>,
    ## #   STATE_CODE <int>, STATE <chr>, COUNTY_CODE <int>, COUNTY <fct>, Lat <dbl>,
    ## #   Long <dbl>, yday <dbl>
…
